<svg xmlns="http://www.w3.org/2000/svg" width="13" height="15" viewBox="0 0 13 15">
  <path id="Polígono_1" data-name="Polígono 1" d="M5.768,3A2,2,0,0,1,9.232,3l4.037,7a2,2,0,0,1-1.732,3H3.463A2,2,0,0,1,1.73,10Z" transform="translate(13) rotate(90)" fill="#fff"/>
</svg>
