<svg xmlns="http://www.w3.org/2000/svg" width="132.759" height="9.515" viewBox="0 0 132.759 9.515">
  <g id="Grupo_100" data-name="Grupo 100" transform="translate(-173.705 9.314)">
    <path id="Trazado_143" data-name="Trazado 143" d="M273.314-8.971a.253.253,0,0,0,.012-.079.264.264,0,0,0-.257-.264h-3.216a.51.51,0,0,0-.477.334s-3.192,8.815-3.192,8.815a.338.338,0,0,0-.008.075.263.263,0,0,0,.258.264h3.216a.514.514,0,0,0,.479-.329l3.185-8.815" transform="translate(-50.857)" fill="#606060"/>
    <path id="Trazado_144" data-name="Trazado 144" d="M311.667-6.908h3.152a.264.264,0,0,1,.262.264.339.339,0,0,1-.017.085c-.919,2.525-2.217,6.147-2.3,6.365a.109.109,0,0,0-.008.027h0a.237.237,0,0,0-.012.077A.263.263,0,0,0,313,.174h3.133a.507.507,0,0,0,.478-.333,0,0,0,0,0,0,0c.059-.166,1.4-3.874,2.322-6.421l0,0a.508.508,0,0,1,.465-.321h4.1a.51.51,0,0,0,.48-.334s0,0,0,0c.094-.247.489-1.381.605-1.7,0-.01.007-.02.011-.03a.256.256,0,0,0,.012-.077.265.265,0,0,0-.258-.265H312.527a.513.513,0,0,0-.477.333s0,0,0,0c-.09.249-.5,1.382-.621,1.7,0,.01-.008.02-.008.027v0a.235.235,0,0,0-.013.077.267.267,0,0,0,.261.265" transform="translate(-75.733 -0.001)" fill="#606060"/>
    <path id="Trazado_145" data-name="Trazado 145" d="M220.033-9.314h-9.687a4.4,4.4,0,0,0-4.015,3.593s0,0,0,0a1.824,1.824,0,0,0-.034.366,1.8,1.8,0,0,0,1.8,1.8h5.627a.493.493,0,0,1,.447.381.332.332,0,0,1,.015.106v.036a.831.831,0,0,1-.83.8h-7.717a.514.514,0,0,0-.477.332L204.533-.16a.3.3,0,0,0-.011.078.267.267,0,0,0,.259.265h9.377a4.4,4.4,0,0,0,4.322-3.593v-.006a1.766,1.766,0,0,0,.039-.364,1.808,1.808,0,0,0-1.8-1.81h-5.594a.5.5,0,0,1-.485-.382.4.4,0,0,1-.014-.107v-.037a.829.829,0,0,1,.83-.794h7.721a.51.51,0,0,0,.478-.333l.625-1.731a.359.359,0,0,0,.009-.078.259.259,0,0,0-.258-.262" transform="translate(-16.949)" fill="#606060"/>
    <path id="Trazado_146" data-name="Trazado 146" d="M250.82-9.314h-9.686a4.4,4.4,0,0,0-4.016,3.593s0,0,0,0a1.857,1.857,0,0,0-.036.366,1.8,1.8,0,0,0,1.8,1.8H244.5a.5.5,0,0,1,.449.381.476.476,0,0,1,.012.106v.036a.832.832,0,0,1-.829.8h-7.717a.508.508,0,0,0-.476.332L235.322-.16a.255.255,0,0,0-.014.078.266.266,0,0,0,.26.265h9.377a4.4,4.4,0,0,0,4.32-3.593.011.011,0,0,0,0-.006,1.765,1.765,0,0,0,.037-.364,1.808,1.808,0,0,0-1.8-1.81h-5.594a.5.5,0,0,1-.484-.382.438.438,0,0,1-.014-.107v-.037a.828.828,0,0,1,.829-.794h7.722a.515.515,0,0,0,.48-.333l.624-1.731a.468.468,0,0,0,.009-.078.26.26,0,0,0-.258-.262" transform="translate(-33.881)" fill="#606060"/>
    <path id="Trazado_147" data-name="Trazado 147" d="M292.129-9.314h-8.488a4.406,4.406,0,0,0-4.016,3.593s0,0,0,0a1.923,1.923,0,0,0-.032.366,1.8,1.8,0,0,0,1.795,1.8h5.628a.5.5,0,0,1,.45.381.442.442,0,0,1,.012.106v.036a.831.831,0,0,1-.83.8h-7.717a.515.515,0,0,0-.478.332L277.826-.16a.345.345,0,0,0-.01.078.265.265,0,0,0,.257.265h9.379a4.4,4.4,0,0,0,4.322-3.593v-.006a1.766,1.766,0,0,0,.039-.364,1.809,1.809,0,0,0-1.8-1.81h-5.593a.5.5,0,0,1-.486-.382.536.536,0,0,1-.013-.107v-.037a.826.826,0,0,1,.827-.794h6.523a.5.5,0,0,0,.475-.333l.625-1.731a.267.267,0,0,0,.013-.078.26.26,0,0,0-.257-.262" transform="translate(-57.259)" fill="#606060"/>
    <path id="Trazado_148" data-name="Trazado 148" d="M361.066-9.314h-8.508a4.383,4.383,0,0,0-4.1,2.81c-.287.777-.88,2.375-1.56,4.3l0,.005a1.855,1.855,0,0,0-.094.583,1.8,1.8,0,0,0,1.8,1.8h9.045a.518.518,0,0,0,.488-.346s.494-1.388.617-1.7a.05.05,0,0,1,.009-.028v0a.237.237,0,0,0,.008-.077.265.265,0,0,0-.258-.266v0l-7.536,0h0a.264.264,0,0,1-.26-.263.147.147,0,0,1,.008-.054h-.006s.006-.014.013-.033c.124-.339,1.14-3.14,1.436-3.975a.512.512,0,0,1,.485-.344h7.566a.517.517,0,0,0,.481-.333v0c.091-.249.5-1.384.616-1.7a.079.079,0,0,0,.01-.027.3.3,0,0,0,.011-.079.263.263,0,0,0-.259-.264" transform="translate(-95.2)" fill="#606060"/>
    <path id="Trazado_149" data-name="Trazado 149" d="M450.957-7.512a1.8,1.8,0,0,0-1.8-1.8h-9.043a.525.525,0,0,0-.493.35c-.021.061-3.082,8.53-3.117,8.629-.023.058-.042.111-.055.148,0,.009-.007.021-.011.03a.127.127,0,0,0-.006.028.329.329,0,0,0-.006.051.267.267,0,0,0,.257.266h10.348a1.824,1.824,0,0,0,1.741-1.346c.287-.776,1.405-3.844,2.086-5.767v-.007a1.776,1.776,0,0,0,.1-.583m-4.175.98c-.123.338-1.143,3.14-1.44,3.974a.507.507,0,0,1-.481.343h-3.617a.265.265,0,0,1-.263-.266A.433.433,0,0,1,441-2.565c.122-.339,1.146-3.14,1.445-3.976a.508.508,0,0,1,.482-.342h3.611a.263.263,0,0,1,.259.264.311.311,0,0,1-.013.088" transform="translate(-144.494 -0.003)" fill="#606060"/>
    <path id="Trazado_150" data-name="Trazado 150" d="M389.967-7.518a1.8,1.8,0,0,0-1.8-1.8h-6.9a4.389,4.389,0,0,0-4.107,2.81c-.1.286-.249.679-.424,1.155-.034.074-.058.146-.086.219-.249.684-.5,1.384-.736,2.03h0c-.583,1.615-1.059,2.931-1.062,2.935a.392.392,0,0,0-.009.077.256.256,0,0,0,0,.059.27.27,0,0,0,.253.214h1.651V.177h1.524a.513.513,0,0,0,.48-.334l1.036-2.869a.827.827,0,0,1,.723-.519h3.932a.269.269,0,0,1,.211.262v.022c-.071.2-.135.375-.185.518h0c-.418,1.151-.863,2.39-.923,2.549,0,.009-.007.018-.01.027a.206.206,0,0,0-.014.077.267.267,0,0,0,.26.266h.976V.185h1.588a.568.568,0,0,0,.094-.007h.495a.511.511,0,0,0,.478-.334v0c.017-.045.135-.372.287-.8a1.908,1.908,0,0,0,.077-.206c.287-.776,1.409-3.841,2.088-5.767v-.007a1.873,1.873,0,0,0,.094-.582M384.9-5.587h-3.473a.494.494,0,0,1-.464-.381.534.534,0,0,1-.013-.107v-.036a.829.829,0,0,1,.709-.785l.04-.006H385.3a.5.5,0,0,1,.44.38.455.455,0,0,1,.012.107v.034a.941.941,0,0,1-.02.15c-.021.06-.045.126-.072.2a.828.828,0,0,1-.738.447Z" transform="translate(-110.623)" fill="#606060"/>
    <path id="Trazado_151" data-name="Trazado 151" d="M188.831-7.481a1.8,1.8,0,0,0-1.8-1.8h-6.624l0,0h-.273a4.377,4.377,0,0,0-4.1,2.81c-.105.283-.251.677-.425,1.155-.032.073-.06.144-.089.217-.247.684-.5,1.383-.733,2.03h0c-.585,1.614-1.058,2.931-1.061,2.934a.251.251,0,0,0-.013.077.164.164,0,0,0,.009.058.261.261,0,0,0,.252.214h1.65V.214h1.523a.517.517,0,0,0,.478-.332l1.037-2.871a.831.831,0,0,1,.725-.517h3.929a.265.265,0,0,1,.213.262c0,.008,0,.014,0,.024-.07.194-.133.372-.184.516h.007c-.419,1.151-.868,2.391-.926,2.548a.112.112,0,0,0-.005.027.173.173,0,0,0-.016.077.265.265,0,0,0,.259.265h.976V.221h1.589a.556.556,0,0,0,.093-.007h.5a.509.509,0,0,0,.476-.332l.006,0c.014-.043.132-.37.284-.8a1.819,1.819,0,0,0,.077-.206c.284-.777,1.406-3.841,2.083-5.767,0,0,0,0,0-.007a1.76,1.76,0,0,0,.1-.583m-5.069,1.932c-.008,0-.77,0-1.579,0h-.162c-.864,0-1.729,0-1.736,0a.5.5,0,0,1-.461-.382.337.337,0,0,1-.015-.107v-.036a.833.833,0,0,1,.711-.788.15.15,0,0,1,.035,0h3.611a.5.5,0,0,1,.437.379.378.378,0,0,1,.015.109v.035a1.026,1.026,0,0,1-.023.148c-.018.059-.046.126-.07.2a.827.827,0,0,1-.736.447h-.028Z" transform="translate(0 -0.02)" fill="#606060"/>
    <path id="Trazado_152" data-name="Trazado 152" d="M419.18-9.3h-9.864a.514.514,0,0,0-.48.322c-.009.027-3.182,8.81-3.188,8.819a.259.259,0,0,0-.012.077.264.264,0,0,0,.258.266h3.169a.508.508,0,0,0,.481-.334l1.04-2.871a.825.825,0,0,1,.766-.518h0l0,0h3.832a.267.267,0,0,1,.266.267.211.211,0,0,1-.014.081c-.454,1.257-1.019,2.828-1.087,3.008,0,.009-.009.018-.014.027a.257.257,0,0,0-.008.077.264.264,0,0,0,.257.266h3.151a.508.508,0,0,0,.476-.334s0,0,0,0c.041-.11.692-1.909.954-2.62,0,0,0,0,0-.005a1.154,1.154,0,0,0,.071-.383,1.06,1.06,0,0,0-1.061-1.061h-.013a3.427,3.427,0,0,0,2.658-2.915,2.04,2.04,0,0,0,.041-.291V-7.5A1.794,1.794,0,0,0,419.18-9.3m-2.633,2.9h0v.025a.831.831,0,0,1-.829.8h-3.505a.5.5,0,0,1-.461-.381.492.492,0,0,1-.014-.109V-6.1a.827.827,0,0,1,.711-.785.34.34,0,0,1,.084-.01h3.516a.5.5,0,0,1,.486.383.623.623,0,0,1,.012.107Z" transform="translate(-127.558 -0.01)" fill="#606060"/>
  </g>
</svg>
