<?xml version="1.0" encoding="utf-8"?>
<!-- Generator: Adobe Illustrator 23.1.0, SVG Export Plug-In . SVG Version: 6.00 Build 0)  -->
<svg version="1.1" id="Capa_1" xmlns="http://www.w3.org/2000/svg" xmlns:xlink="http://www.w3.org/1999/xlink" x="0px" y="0px"
	 viewBox="0 0 216 154" style="enable-background:new 0 0 216 154;" xml:space="preserve">
<style type="text/css">
	.st0{fill:none;stroke:#FFFFFF;stroke-width:1.7285;stroke-miterlimit:10;}
	.st1{fill:#518F80;}
</style>
<g>
	<path class="st0" d="M61.27,10.68c-22.78,3.11-44.2,12.45-40.59,38.31s-5.76,78.15,44.5,98.47S205.87,52.63,195.62,33.23
		S188.05-6.64,61.27,10.68z"/>
	<path class="st1" d="M163.44,22.65L64.38,6.86c0,0-57.42-17.23-60.29,33.02s40.19,83.26,64.6,84.7
		c24.4,1.44,105.84,0.14,122.02-11.48C201.46,105.37,245.24,35.69,163.44,22.65z"/>
</g>
</svg>
