<svg xmlns="http://www.w3.org/2000/svg" width="48.686" height="48.612" viewBox="0 0 48.686 48.612">
  <g id="Grupo_549" data-name="Grupo 549" transform="translate(-2424.6 366.995)">
    <path id="Trazado_587" data-name="Trazado 587" d="M2447.354-366.995h3.034q1.274.2,2.549.408a24.274,24.274,0,0,1,20.152,26.864,24.212,24.212,0,0,1-23.065,21.311,24.05,24.05,0,0,1-24.1-16.6,60.33,60.33,0,0,1-1.321-6.193v-3.034a4.842,4.842,0,0,0,.183-.72,24.082,24.082,0,0,1,18.044-21.172C2444.309-366.523,2445.843-366.713,2447.354-366.995Zm21.091,16.686-5.511,7.06,4.5,7.391a17.975,17.975,0,0,0-2.012.013,1.773,1.773,0,0,1-2.025-1.135c-.724-1.44-1.593-2.806-2.4-4.2l-.365-.031a15.574,15.574,0,0,0-.759,2.453,20.023,20.023,0,0,0-.03,2.828h-2.682v-12.512a12.139,12.139,0,0,0,1.429-.01c.976-.12,1.352.219,1.275,1.246-.091,1.229-.022,2.47-.022,3.706a1.088,1.088,0,0,0,.6-.452c1.967-2.851,3.9-5.726,5.919-8.54a1.362,1.362,0,0,0,0-1.887c-4.929-6.813-11.6-9.968-19.937-9.082a20.971,20.971,0,0,0-18.326,23.378,21.035,21.035,0,0,0,25.884,17.8,21.014,21.014,0,0,0,15.871-18.453A19.868,19.868,0,0,0,2468.444-350.309Z" fill="#8b8b8b"/>
    <path id="Trazado_588" data-name="Trazado 588" d="M2529.235-268.862a15.9,15.9,0,0,1-2.331-.035,1.519,1.519,0,0,1-.89-.744c-1.471-2.64-2.9-5.3-4.568-7.948v8.71h-2.489v-12.563a28.411,28.411,0,0,1,2.888.035,1.462,1.462,0,0,1,.9.73c1.191,2.179,2.33,4.387,3.489,6.584a1.662,1.662,0,0,0,.606.692v-7.967h2.393Z" transform="translate(-73.91 -66.998)" fill="#8b8b8b"/>
    <path id="Trazado_589" data-name="Trazado 589" d="M2461.569-270.966h4.365v2.4h-7.049v-12.432h2.685Z" transform="translate(-26.855 -67.365)" fill="#8b8b8b"/>
    <path id="Trazado_590" data-name="Trazado 590" d="M2498.862-268.631v-12.421h2.669v12.421Z" transform="translate(-58.169 -67.319)" fill="#8b8b8b"/>
    <path id="Trazado_591" data-name="Trazado 591" d="M2498.477-307.9a1.862,1.862,0,0,1,1.8,1.8,1.881,1.881,0,0,1-1.779,1.827,1.875,1.875,0,0,1-1.848-1.861A1.863,1.863,0,0,1,2498.477-307.9Z" transform="translate(-56.435 -46.291)" fill="#8b8b8b"/>
  </g>
</svg>
