<?xml version="1.0" encoding="utf-8"?>
<!-- Generator: Adobe Illustrator 17.0.0, SVG Export Plug-In . SVG Version: 6.00 Build 0)  -->
<!DOCTYPE svg PUBLIC "-//W3C//DTD SVG 1.1//EN" "http://www.w3.org/Graphics/SVG/1.1/DTD/svg11.dtd">
<svg version="1.1" id="Capa_1" xmlns="http://www.w3.org/2000/svg" xmlns:xlink="http://www.w3.org/1999/xlink" x="0px" y="0px"
	 width="26.954px" height="84.603px" viewBox="0 0 26.954 84.603" enable-background="new 0 0 26.954 84.603" xml:space="preserve">
<g>
	<g>
		<g>
			<g>
				<path fill="#2B2B2B" d="M17.259,53.638l3.569-29.391c0.826-4.602,0.555-10.268-3.917-11.404c-4.68-1.795-7.943,2.305-8.32,7.138
					C7.424,29.008,6.221,39.36,5.034,48.988L3.248,63.685c-0.287,4.87-2.079,10.008-0.32,14.052
					c1.533,4.139,7.266,6.01,10.798,3.671c3.672-2.562,3.652-7.934,4.291-12.755l3.57-29.395c1.034-9.684,2.726-19.851,3.22-29.135
					c-0.428-4.459-4.625-8.114-9.095-7.948c-4.461-0.087-8.571,3.557-9.063,8.009L4.497,9.923C5.1,4.412,10.18-0.092,15.708,0.006
					c5.523-0.189,10.71,4.32,11.246,9.842c-0.486,10.356-2.182,19.749-3.218,29.67l-3.567,29.396
					c-0.719,4.564-0.323,10.638-5.223,14.282c-4.953,3.199-11.913,0.634-14.007-4.587C-1.168,73.225,0.9,68.242,1.097,63.424
					l1.787-14.697c1.19-9.661,2.377-19.896,3.569-29.089c0.428-2.49,1.069-5.203,3.118-7.308c2.127-2.196,5.421-2.358,7.973-1.558
					c2.776,0.686,4.964,3.322,5.438,5.994c0.637,2.633,0.317,5.368,0,7.74l-3.573,29.396L17.259,53.638z"/>
				<path fill="#3E3E3E" d="M17.342,53.65l3.573-29.391c0.824-4.592,0.566-10.333-3.98-11.495c-2.092-0.634-4.504-0.464-5.904,1.053
					c-1.479,1.479-2.154,3.837-2.524,6.149C7.341,29.004,6.136,39.352,4.949,48.98L3.165,63.673
					c-0.283,4.87-2.084,10.001-0.317,14.098c1.558,4.18,7.337,6.077,10.923,3.705c3.722-2.604,3.688-8.002,4.331-12.815
					l3.569-29.392c1.034-9.691,2.729-19.832,3.222-29.156c-0.432-4.501-4.67-8.19-9.18-8.024c-4.5-0.083-8.649,3.595-9.149,8.088
					L4.598,9.935c0.6-5.455,5.632-9.926,11.11-9.824C21.18-0.077,26.32,4.389,26.854,9.863c-0.489,10.303-2.187,19.734-3.22,29.645
					l-3.571,29.395c-0.711,4.572-0.332,10.612-5.176,14.207c-4.887,3.158-11.785,0.627-13.852-4.546
					c-2.092-5.315-0.04-10.306,0.166-15.127l1.786-14.698c1.187-9.657,2.378-19.899,3.565-29.085
					c0.426-2.482,1.067-5.176,3.09-7.251c2.092-2.162,5.342-2.324,7.871-1.531c2.746,0.683,4.896,3.271,5.366,5.919
					c0.638,2.614,0.317,5.326-0.002,7.707l-3.568,29.392L17.342,53.65z"/>
				<path fill="#525252" d="M17.429,53.662l3.569-29.396c0.826-4.579,0.577-10.393-4.037-11.585
					c-2.112-0.638-4.561-0.472-5.991,1.075c-1.5,1.505-2.173,3.874-2.546,6.198c-1.165,9.043-2.371,19.383-3.556,29.014
					L3.082,63.662c-0.281,4.871-2.094,9.994-0.311,14.143c1.577,4.222,7.407,6.146,11.051,3.738
					c3.767-2.641,3.716-8.069,4.363-12.872l3.569-29.391c1.034-9.703,2.726-19.812,3.222-29.18c-0.438-4.543-4.71-8.262-9.263-8.096
					c-4.544-0.083-8.726,3.629-9.231,8.16L4.702,9.95C5.297,4.54,10.28,0.115,15.708,0.213c5.421-0.189,10.517,4.24,11.046,9.665
					c-0.495,10.25-2.188,19.719-3.222,29.617l-3.569,29.392c-0.709,4.587-0.351,10.593-5.136,14.139
					c-4.815,3.116-11.659,0.615-13.696-4.504c-2.079-5.251-0.038-10.25,0.17-15.075l1.786-14.693
					c1.187-9.657,2.382-19.907,3.569-29.082c0.42-2.475,1.065-5.149,3.056-7.193c2.058-2.129,5.266-2.294,7.771-1.51
					c2.71,0.676,4.827,3.222,5.297,5.848c0.628,2.592,0.316,5.281-0.006,7.669l-3.569,29.392L17.429,53.662z"/>
				<path fill="#656565" d="M17.508,53.672l3.573-29.395c0.826-4.572,0.592-10.458-4.095-11.676
					c-2.129-0.649-4.612-0.48-6.075,1.098c-1.524,1.524-2.194,3.912-2.565,6.239C7.171,28.99,5.97,39.329,4.783,48.956L2.997,63.655
					c-0.277,4.866-2.103,9.981-0.302,14.188c1.598,4.259,7.476,6.213,11.172,3.771c3.818-2.689,3.752-8.141,4.4-12.932l3.571-29.395
					c1.032-9.707,2.728-19.787,3.22-29.195c-0.439-4.588-4.753-8.341-9.346-8.175c-4.587-0.083-8.807,3.663-9.314,8.235L4.802,9.961
					C5.39,4.605,10.331,0.22,15.708,0.319C21.08,0.13,26.128,4.517,26.65,9.89c-0.49,10.2-2.186,19.707-3.222,29.595L19.86,68.875
					c-0.708,4.603-0.362,10.574-5.091,14.067c-4.75,3.071-11.53,0.607-13.545-4.463c-2.06-5.187-0.032-10.193,0.183-15.022
					l1.784-14.693C4.38,39.107,5.572,28.854,6.76,19.691c0.417-2.468,1.06-5.127,3.027-7.139c2.02-2.097,5.182-2.263,7.665-1.482
					c2.681,0.668,4.759,3.162,5.229,5.769c0.621,2.573,0.315,5.244-0.009,7.632l-3.569,29.394L17.508,53.672z"/>
				<path fill="#787878" d="M17.595,53.68l3.571-29.392c0.824-4.56,0.604-10.521-4.156-11.769c-2.147-0.648-4.666-0.482-6.158,1.117
					c-1.547,1.558-2.216,3.953-2.594,6.292C7.088,28.982,5.885,39.315,4.7,48.95L2.916,63.643c-0.275,4.862-2.108,9.978-0.298,14.23
					c1.618,4.305,7.541,6.285,11.297,3.811c3.865-2.728,3.785-8.209,4.436-12.992l3.569-29.392
					c1.036-9.718,2.731-19.768,3.222-29.218c-0.443-4.625-4.797-8.412-9.429-8.246c-4.627-0.083-8.888,3.693-9.401,8.311
					L4.908,9.972c0.584-5.308,5.477-9.649,10.8-9.552c5.321-0.185,10.322,4.165,10.838,9.48c-0.49,10.151-2.184,19.692-3.218,29.568
					l-3.573,29.396c-0.702,4.613-0.377,10.551-5.043,13.988c-4.682,3.032-11.408,0.6-13.396-4.414
					c-2.041-5.123-0.025-10.137,0.192-14.966l1.785-14.697c1.188-9.653,2.38-19.915,3.567-29.074
					c0.413-2.452,1.062-5.097,2.997-7.073c1.988-2.067,5.106-2.229,7.565-1.46c2.646,0.664,4.688,3.112,5.155,5.696
					c0.622,2.551,0.315,5.198-0.009,7.594L19.002,53.85L17.595,53.68z"/>
				<path fill="#8B8B8B" d="M17.678,53.692l3.569-29.396c0.83-4.549,0.619-10.586-4.214-11.854c-2.166-0.66-4.719-0.494-6.242,1.137
					c-1.567,1.576-2.235,3.99-2.612,6.334c-1.175,9.061-2.377,19.39-3.561,29.024L2.831,63.632
					c-0.27,4.862-2.118,9.971-0.292,14.274c1.643,4.346,7.616,6.353,11.423,3.848c3.914-2.772,3.818-8.28,4.472-13.053l3.571-29.391
					c1.032-9.729,2.728-19.749,3.22-29.24c-0.447-4.667-4.838-8.488-9.512-8.318c-4.667-0.087-8.965,3.724-9.48,8.382L5.01,9.988
					c0.577-5.259,5.427-9.559,10.699-9.465c5.27-0.182,10.225,4.123,10.737,9.389c-0.491,10.104-2.187,19.682-3.22,29.547
					l-3.569,29.391c-0.7,4.629-0.392,10.533-5.002,13.92c-4.612,2.992-11.28,0.593-13.241-4.372
					c-2.024-5.063-0.023-10.08,0.196-14.912l1.787-14.693c1.188-9.654,2.384-19.919,3.564-29.075
					c0.413-2.444,1.063-5.066,2.971-7.016c1.948-2.03,5.025-2.192,7.462-1.438c2.61,0.66,4.618,3.066,5.087,5.624
					c0.611,2.532,0.31,5.157-0.011,7.561l-3.572,29.391L17.678,53.692z"/>
				<path fill="#9F9F9F" d="M17.761,53.703l3.571-29.395c0.83-4.539,0.628-10.65-4.273-11.947c-2.186-0.668-4.776-0.498-6.327,1.154
					c-1.592,1.604-2.258,4.032-2.641,6.383c-1.171,9.068-2.373,19.394-3.561,29.029L2.748,63.624
					c-0.27,4.858-2.122,9.959-0.287,14.316c1.668,4.391,7.687,6.421,11.546,3.882c3.961-2.814,3.853-8.349,4.512-13.109
					l3.569-29.395c1.034-9.737,2.729-19.727,3.222-29.26c-0.453-4.708-4.884-8.559-9.597-8.39c-4.71-0.091-9.042,3.758-9.567,8.454
					L5.11,9.999c0.573-5.211,5.378-9.466,10.599-9.371c5.223-0.186,10.129,4.082,10.633,9.299
					c-0.491,10.05-2.186,19.666-3.22,29.519l-3.571,29.391c-0.694,4.641-0.402,10.511-4.955,13.846
					C10.05,85.636,3.44,83.271,1.509,78.356c-2.007-4.999-0.021-10.023,0.206-14.86l1.782-14.693
					c1.191-9.653,2.382-19.922,3.567-29.066c0.409-2.438,1.058-5.044,2.941-6.961c1.911-1.995,4.943-2.161,7.358-1.41
					c5.787,1.618,5.84,8.658,5.002,13.067l-3.569,29.396L17.761,53.703z"/>
				<path fill="#B2B2B2" d="M17.846,53.71l3.567-29.392c0.831-4.53,0.643-10.714-4.331-12.038c-2.203-0.675-4.829-0.509-6.41,1.178
					c-1.615,1.626-2.279,4.07-2.664,6.428c-1.171,9.073-2.372,19.394-3.557,29.033L2.665,63.613
					c-0.264,4.859-2.133,9.952-0.281,14.362c1.686,4.433,7.753,6.492,11.674,3.919c4.008-2.859,3.884-8.42,4.544-13.173
					l3.569-29.392c1.037-9.748,2.729-19.707,3.222-29.277c-0.46-4.754-4.927-8.64-9.68-8.47c-4.753-0.083-9.124,3.792-9.65,8.53
					L5.215,10.01c0.566-5.153,5.321-9.374,10.495-9.28c5.17-0.182,10.027,4.041,10.531,9.213c-0.49,9.996-2.188,19.65-3.22,29.488
					L19.45,68.827c-0.692,4.647-0.418,10.487-4.91,13.773c-4.481,2.912-11.031,0.577-12.941-4.282
					c-1.988-4.938-0.013-9.971,0.215-14.807L3.6,48.814c1.187-9.65,2.385-19.923,3.567-29.063c0.403-2.429,1.056-5.017,2.906-6.903
					c1.877-1.962,4.867-2.128,7.258-1.385c5.698,1.588,5.764,8.533,4.929,12.959l-3.565,29.395L17.846,53.71z"/>
				<path fill="#C5C5C5" d="M17.927,53.722l3.571-29.396c0.83-4.519,0.654-10.778-4.391-12.128c-2.22-0.684-4.884-0.514-6.491,1.199
					c-1.637,1.656-2.301,4.111-2.69,6.478c-1.171,9.08-2.372,19.394-3.561,29.032L2.582,63.602
					C2.32,68.46,0.441,73.546,2.308,78.008c1.707,4.475,7.82,6.557,11.795,3.954c4.057-2.897,3.917-8.488,4.582-13.23l3.573-29.391
					c1.029-9.76,2.726-19.686,3.218-29.301c-0.462-4.791-4.969-8.715-9.763-8.541c-4.793-0.087-9.205,3.825-9.733,8.605
					l-0.664-0.084c0.564-5.103,5.272-9.279,10.395-9.189c5.121-0.181,9.931,4.003,10.429,9.122
					c-0.493,9.948-2.188,19.636-3.222,29.467l-3.569,29.395c-0.688,4.659-0.434,10.469-4.869,13.698
					c-4.412,2.871-10.904,0.569-12.783-4.236c-1.975-4.874-0.013-9.914,0.221-14.754L3.7,48.829c1.19-9.65,2.384-19.93,3.567-29.06
					c0.406-2.422,1.057-4.994,2.88-6.85c1.843-1.925,4.786-2.091,7.154-1.358c5.612,1.554,5.695,8.408,4.859,12.849l-3.57,29.392
					L17.927,53.722z"/>
				<path fill="#D8D8D8" d="M18.012,53.733l3.568-29.395c0.832-4.509,0.666-10.847-4.449-12.22
					c-2.237-0.686-4.938-0.519-6.574,1.219c-1.662,1.679-2.326,4.15-2.71,6.523C6.67,28.948,5.466,39.258,4.28,48.897L2.497,63.594
					c-0.257,4.855-2.147,9.937-0.264,14.448c1.727,4.516,7.892,6.629,11.917,3.991c4.103-2.942,3.952-8.56,4.621-13.29l3.566-29.394
					c1.037-9.764,2.729-19.662,3.222-29.32c-0.464-4.832-5.012-8.785-9.846-8.612c-4.837-0.091-9.284,3.855-9.818,8.677
					l-0.476-0.057c0.557-5.055,5.22-9.193,10.292-9.104c5.07-0.177,9.836,3.965,10.323,9.031c-0.49,9.899-2.182,19.625-3.218,29.444
					L19.243,68.8c-0.681,4.674-0.445,10.445-4.821,13.626C10.08,85.259,3.646,82.992,1.79,78.235
					c-1.956-4.81-0.006-9.857,0.232-14.701L3.804,48.84c1.19-9.646,2.384-19.934,3.563-29.056c0.404-2.414,1.056-4.965,2.852-6.791
					c1.807-1.893,4.706-2.059,7.053-1.335c5.523,1.524,5.619,8.288,4.783,12.739l-3.567,29.392L18.012,53.733z"/>
				<path fill="#ECECEC" d="M18.095,53.741l3.568-29.392c0.832-4.5,0.681-10.91-4.506-12.31c-2.26-0.694-4.993-0.528-6.66,1.237
					c-1.684,1.705-2.347,4.188-2.737,6.572c-1.177,9.092-2.373,19.394-3.561,29.036L2.414,63.582
					c-0.253,4.855-2.154,9.93-0.26,14.494c1.754,4.558,7.96,6.696,12.045,4.025c4.151-2.984,3.983-8.628,4.651-13.347l3.572-29.396
					c1.034-9.774,2.728-19.644,3.218-29.342c-0.47-4.874-5.052-8.862-9.929-8.688c-4.878-0.086-9.359,3.894-9.901,8.752
					l-0.289-0.033c0.553-5.006,5.168-9.1,10.188-9.009c5.023-0.178,9.735,3.923,10.223,8.94c-0.492,9.846-2.188,19.609-3.22,29.418
					l-3.57,29.391c-0.681,4.689-0.462,10.424-4.778,13.555c-4.276,2.788-10.654,0.555-12.479-4.149
					c-1.943-4.746-0.005-9.801,0.236-14.645l1.786-14.698C5.095,39.205,6.292,28.913,7.471,19.8
					c0.398-2.403,1.056-4.938,2.819-6.734c1.769-1.859,4.627-2.021,6.951-1.309c5.438,1.49,5.547,8.163,4.713,12.626l-3.572,29.396
					L18.095,53.741z"/>
				<path fill="#FFFFFF" d="M18.178,53.751l3.57-29.391c0.834-4.489,0.69-10.978-4.566-12.404c-2.278-0.701-5.046-0.531-6.743,1.26
					c-1.707,1.732-2.369,4.233-2.762,6.617C6.5,28.933,5.3,39.236,4.114,48.877L2.327,63.572c-0.245,4.852-2.158,9.921-0.251,14.539
					c1.772,4.599,8.03,6.764,12.169,4.059c4.198-3.021,4.018-8.695,4.692-13.407l3.565-29.391
					c1.037-9.786,2.731-19.624,3.226-29.365c-0.476-4.915-5.099-8.937-10.016-8.76c-4.92-0.091-9.441,3.924-9.984,8.827
					l-0.105-0.015C6.172,5.106,10.74,1.05,15.712,1.141c4.97-0.177,9.638,3.886,10.118,8.854c-0.49,9.793-2.184,19.594-3.218,29.387
					l-3.569,29.396c-0.679,4.7-0.479,10.404-4.738,13.482c-4.208,2.746-10.523,0.543-12.325-4.108
					c-1.924-4.682,0-9.744,0.245-14.592l1.783-14.697c1.186-9.642,2.39-19.941,3.563-29.044c0.397-2.399,1.055-4.915,2.795-6.678
					c1.73-1.829,4.546-1.991,6.845-1.282c5.348,1.46,5.476,8.035,4.642,12.513l-3.571,29.392L18.178,53.751z"/>
			</g>
		</g>
	</g>
</g>
</svg>
